…
nonlin_df %>% 
  ggplot(aes(x = x, y = y)) + 
  geom_point()
```

<img src="cross_validation_files/figure-gfm/unnamed-chunk-2-1.png" width="90%" />

``` r
# split data
train_df = sample_n(nonlin_df, 80)
train_df
```

    ## # A tibble: 80 × 3
    ##       id      x       y
    ##    <int>  <dbl>   <dbl>
    ##  1    73 0.347   0.914 
    ##  2    27 0.0134  0.0456
    ##  3    41 0.821  -1.88  
    ##  4    15 0.770  -1.43  
    ##  5    57 0.316   1.21  
    ##  6    38 0.108   0.540 
    ##  7    62 0.294   0.861 
    ##  8     6 0.898  -1.99  
    ##  9     4 0.908  -3.04  
    ## 10    35 0.827  -1.60  
    ## # … with 70 more rows
…
    ## [1] 0.289051

# Iterate

``` r
cv_df = 
  crossv_mc(nonlin_df, 100)

# quick view of train[1]
cv_df %>% 
  pull(train) %>% 
  .[[1]] %>% as.tibble()
```

    ## # A tibble: 79 × 3
    ##       id      x       y
    ##    <int>  <dbl>   <dbl>
    ##  1     1 0.266   1.11  
    ##  2     2 0.372   0.764 
    ##  3     3 0.573   0.358 
    ##  4     4 0.908  -3.04  
    ##  5     6 0.898  -1.99  
    ##  6     7 0.945  -3.27  
    ##  7     8 0.661  -0.615 
    ##  8     9 0.629   0.0878
    ##  9    10 0.0618  0.392 
    ## 10    11 0.206   1.63  
    ## # … with 69 more rows
``` r
cv_df = 
  cv_df %>% 
  mutate(
    train = map(train, as.tibble),
    test = map(test, as.tibble)
  ) %>% 
  mutate(
    linear_fits = map(.x = train, ~lm(y ~ x, data = .x)) 
  )
  
cv_df
```

    ## # A tibble: 100 × 4
    ##    train             test              .id   linear_fits
    ##    <list>            <list>            <chr> <list>     
    ##  1 <tibble [79 × 3]> <tibble [21 × 3]> 001   <lm>       
    ##  2 <tibble [79 × 3]> <tibble [21 × 3]> 002   <lm>       
    ##  3 <tibble [79 × 3]> <tibble [21 × 3]> 003   <lm>       
    ##  4 <tibble [79 × 3]> <tibble [21 × 3]> 004   <lm>       
    ##  5 <tibble [79 × 3]> <tibble [21 × 3]> 005   <lm>       
    ##  6 <tibble [79 × 3]> <tibble [21 × 3]> 006   <lm>       
    ##  7 <tibble [79 × 3]> <tibble [21 × 3]> 007   <lm>       
    ##  8 <tibble [79 × 3]> <tibble [21 × 3]> 008   <lm>       
    ##  9 <tibble [79 × 3]> <tibble [21 × 3]> 009   <lm>       
    ## 10 <tibble [79 × 3]> <tibble [21 × 3]> 010   <lm>       
    ## # … with 90 more rows
